<?xml version="1.0" encoding="UTF-8" standalone="no"?>
<!-- Created with Inkscape (http://www.inkscape.org/) -->

<svg
   xmlns:dc="http://purl.org/dc/elements/1.1/"
   xmlns:cc="http://creativecommons.org/ns#"
   xmlns:rdf="http://www.w3.org/1999/02/22-rdf-syntax-ns#"
   xmlns:svg="http://www.w3.org/2000/svg"
   xmlns="http://www.w3.org/2000/svg"
   xmlns:sodipodi="http://sodipodi.sourceforge.net/DTD/sodipodi-0.dtd"
   xmlns:inkscape="http://www.inkscape.org/namespaces/inkscape"
   width="744.09448819"
   height="1052.3622047"
   id="svg4358"
   version="1.1"
   inkscape:version="0.48.4 r9939"
   sodipodi:docname="introscreen.svg">
  <defs
     id="defs4360" />
  <sodipodi:namedview
     id="base"
     pagecolor="#ffffff"
     bordercolor="#666666"
     borderopacity="1.0"
     inkscape:pageopacity="0.0"
     inkscape:pageshadow="2"
     inkscape:zoom="0.97207031"
     inkscape:cx="214.51778"
     inkscape:cy="520"
     inkscape:document-units="px"
     inkscape:current-layer="layer1"
     showgrid="false"
     inkscape:window-width="1535"
     inkscape:window-height="878"
     inkscape:window-x="57"
     inkscape:window-y="-8"
     inkscape:window-maximized="1" />
  <metadata
     id="metadata4363">
    <rdf:RDF>
      <cc:Work
         rdf:about="">
        <dc:format>image/svg+xml</dc:format>
        <dc:type
           rdf:resource="http://purl.org/dc/dcmitype/StillImage" />
        <dc:title></dc:title>
      </cc:Work>
    </rdf:RDF>
  </metadata>
  <g
     inkscape:label="Layer 1"
     inkscape:groupmode="layer"
     id="layer1">
    <text
       xml:space="preserve"
       style="font-size:40px;font-style:normal;font-weight:normal;line-height:125%;letter-spacing:0px;word-spacing:0px;fill:#000000;fill-opacity:1;stroke:none;font-family:Bitstream Vera Sans"
       x="385.23782"
       y="414.54822"
       id="text4366"
       sodipodi:linespacing="125%"
       inkscape:export-filename="C:\Users\dacz\Projects\GlobalGameJam2013\assets\introscreen.png"
       inkscape:export-xdpi="95.739998"
       inkscape:export-ydpi="95.739998"><tspan
         sodipodi:role="line"
         id="tspan4368"
         x="385.23782"
         y="414.54822"
         style="font-style:normal;font-variant:normal;font-weight:bold;font-stretch:normal;text-align:center;text-anchor:middle;fill:#ff7d7d;fill-opacity:1;stroke:#e70000;stroke-opacity:1;font-family:Berlin Sans FB Demi;-inkscape-font-specification:Berlin Sans FB Demi Bold">Catch your life blood</tspan><tspan
         sodipodi:role="line"
         x="385.23782"
         y="464.54822"
         id="tspan4370"
         style="font-style:normal;font-variant:normal;font-weight:bold;font-stretch:normal;text-align:center;text-anchor:middle;fill:#ff7d7d;fill-opacity:1;stroke:#e70000;stroke-opacity:1;font-family:Berlin Sans FB Demi;-inkscape-font-specification:Berlin Sans FB Demi Bold">and return it to your heart.</tspan><tspan
         sodipodi:role="line"
         x="390.23782"
         y="514.54822"
         id="tspan4372"
         style="font-style:normal;font-variant:normal;font-weight:bold;font-stretch:normal;text-align:center;text-anchor:middle;fill:#ff7d7d;fill-opacity:1;stroke:#e70000;stroke-opacity:1;font-family:Berlin Sans FB Demi;-inkscape-font-specification:Berlin Sans FB Demi Bold">But watch out; </tspan><tspan
         sodipodi:role="line"
         x="385.23782"
         y="564.54822"
         id="tspan4374"
         style="font-style:normal;font-variant:normal;font-weight:bold;font-stretch:normal;text-align:center;text-anchor:middle;fill:#ff7d7d;fill-opacity:1;stroke:#e70000;stroke-opacity:1;font-family:Berlin Sans FB Demi;-inkscape-font-specification:Berlin Sans FB Demi Bold">you can only carry so much!</tspan><tspan
         sodipodi:role="line"
         x="385.23782"
         y="614.54822"
         style="font-style:normal;font-variant:normal;font-weight:bold;font-stretch:normal;text-align:center;text-anchor:middle;fill:#ff7d7d;fill-opacity:1;stroke:#e70000;stroke-opacity:1;font-family:Berlin Sans FB Demi;-inkscape-font-specification:Berlin Sans FB Demi Bold"
         id="tspan4376" /><tspan
         sodipodi:role="line"
         x="385.23782"
         y="664.54822"
         style="font-style:normal;font-variant:normal;font-weight:bold;font-stretch:normal;text-align:center;text-anchor:middle;fill:#ff7d7d;fill-opacity:1;stroke:#e70000;stroke-opacity:1;font-family:Berlin Sans FB Demi;-inkscape-font-specification:Berlin Sans FB Demi Bold"
         id="tspan4378">Button/Space/Tap</tspan><tspan
         sodipodi:role="line"
         x="385.23782"
         y="714.54822"
         style="font-style:normal;font-variant:normal;font-weight:bold;font-stretch:normal;text-align:center;text-anchor:middle;fill:#ff7d7d;fill-opacity:1;stroke:#e70000;stroke-opacity:1;font-family:Berlin Sans FB Demi;-inkscape-font-specification:Berlin Sans FB Demi Bold"
         id="tspan4380">to begin</tspan></text>
  </g>
</svg>
